module gitlab.com/task/user_service

go 1.19

require (
	github.com/golang/protobuf v1.5.2
	github.com/jmoiron/sqlx v1.3.5
	github.com/lib/pq v1.2.0
	github.com/spf13/cast v1.5.0
	go.uber.org/zap v1.24.0
	google.golang.org/grpc v1.53.0
)

require (
	go.uber.org/atomic v1.7.0 // indirect
	go.uber.org/multierr v1.6.0 // indirect
	golang.org/x/net v0.5.0 // indirect
	golang.org/x/sys v0.4.0 // indirect
	golang.org/x/text v0.6.0 // indirect
	google.golang.org/genproto v0.0.0-20230110181048-76db0878b65f // indirect
	google.golang.org/protobuf v1.28.1 // indirect
)
